{{- if .Values.ingress.enabled -}}
{{- $fullName := include "SERVICE_NAME.fullname" . -}}
{{- $ingressPaths := .Values.ingress.paths -}}
apiVersion: extensions/v1beta1
kind: Ingress
metadata:
  name: {{ $fullName }}
  labels:
    app.kubernetes.io/name: {{ include "SERVICE_NAME.name" . }}
    helm.sh/chart: {{ include "SERVICE_NAME.chart" . }}
    app.kubernetes.io/instance: {{ .Release.Name }}
    app.kubernetes.io/managed-by: {{ .Release.Service }}
  {{- with .Values.ingress.annotations }}
  annotations:
    {{- toYaml . | nindent 4 }}
  {{- end }}
spec:
{{- if .Values.ingress.tls }}
  tls:
  {{- range .Values.ingress.tls }}
    - hosts:
      {{- range .hosts }}
        - {{ . | quote }}
      {{- end }}
      secretName: {{ .secretName }}
  {{- end }}
{{- end }}
  rules:
  {{- range .Values.ingress.hosts }}
    - host: {{ . | quote }}
      http:
        paths:
	{{- range $ingressPaths }}
          - path: {{ . }}
            backend:
              serviceName: {{ $fullName }}
              servicePort: http
	{{- end }}
  {{- end }}
{{- end }}
